{
    "DNDConfig": null,
    "__parentReadjusting__": false,
    "_height_": {
        "type": "string",
        "value": "82%"
    },
    "_left_": {
        "type": "string",
        "value": "0dp"
    },
    "_margin_": [
        0,
        0,
        0,
        0
    ],
    "_orientation_": 6,
    "_padding_": [
        0,
        0,
        0,
        0
    ],
    "_percent_": true,
    "_skin_": "sf59dbd22de24f108a4d715ca987bfb6",
    "_top_": {
        "type": "string",
        "value": "10%"
    },
    "_width_": {
        "type": "string",
        "value": "100%"
    },
    "actionsInfo": {
        "skipMapping": true
    },
    "allboxes": [],
    "allowhorizontalbounce": false,
    "allowverticalbounce": true,
    "bounces": true,
    "canUpdateUI": true,
    "children": [
        "flexNationality",
        "flexcustomerMnemonic",
        "flexcustomerName",
        "flexdisplayName",
        "flexlanguage",
        "flexsectorId",
        "flexgender",
        "flexcustomerstatus"
    ],
    "clipbounds": true,
    "containerweight": 100,
    "decelerat": false,
    "dragg": false,
    "enablescrolling": true,
    "horizontalscrollindicator": true,
    "id": "flexFieldsContainer",
    "info": null,
    "iscustomlayout": false,
    "isvisible": true,
    "kuid": "e8e95e71df35455ebbe7f13cec8196fc",
    "layouttype": 4,
    "name": "kony.ui.FlexScrollContainer",
    "pagingenabled": false,
    "parent": "customerForm",
    "pf": "customerForm",
    "retaincontentalignment": false,
    "retainflexpositionproperties": false,
    "retainflowhorizontalalignment": false,
    "scrolldirection": 2,
    "snapgridsize": 10,
    "snaptogrid": true,
    "track": false,
    "verticalscrollindicator": true,
    "vizProps": {
        "dynamicPropertiesConfig": {
            "flexKUID": "e8e95e71df35455ebbe7f13cec8196fc",
            "operationName": "CustomerCreation",
            "serviceName": "CustomerCreationJSON",
            "serviceType": "integration",
            "viewType": "Entry form ui",
            "widgetsConfig": {
                "Nationality": {
                    "dataType": "string",
                    "layoutConfig": {
                        "isRequired": {
                            "kuid": "ga6511e1a09b4191abb732d8bcabfd64",
                            "wType": "Label"
                        },
                        "kuid": "c9ebba47a9d441f0b13dcc148e444b8f",
                        "name": {
                            "kuid": "fbe4be2bf4034b719e4dba91e66528b4",
                            "wType": "Label"
                        },
                        "nameFlex": {
                            "kuid": "jc49ff58f7a94fb188166025a2841e1e",
                            "wType": "FlexContainer"
                        },
                        "value": {
                            "kuid": "eca99c0115a94dbeb811dbda0a0357c9",
                            "wType": "TextField"
                        },
                        "wType": "FlexContainer"
                    },
                    "properties": {
                        "displayName": {
                            "key": "text",
                            "value": "Nationality"
                        },
                        "generate": true,
                        "index": 0,
                        "isReadOnly": {
                            "key": "isReadOnly",
                            "value": false
                        },
                        "isRequired": false,
                        "placeholder": {
                            "key": "placeholder",
                            "value": ""
                        }
                    }
                },
                "customerMnemonic": {
                    "dataType": "string",
                    "layoutConfig": {
                        "isRequired": {
                            "kuid": "ff4eae4a170c4abca8cad23760f5ee70",
                            "wType": "Label"
                        },
                        "kuid": "ga53e2a5081643e297e71f5da2dcbc3e",
                        "name": {
                            "kuid": "b4fb230fbd424466b989654d68bd5ec5",
                            "wType": "Label"
                        },
                        "nameFlex": {
                            "kuid": "ead7661db0314ed4a26caf391d20b490",
                            "wType": "FlexContainer"
                        },
                        "value": {
                            "kuid": "h57611722d1a46fdb38da4dbd74798ff",
                            "wType": "TextField"
                        },
                        "wType": "FlexContainer"
                    },
                    "properties": {
                        "displayName": {
                            "key": "text",
                            "value": "customerMnemonic"
                        },
                        "generate": true,
                        "index": 1,
                        "isReadOnly": {
                            "key": "isReadOnly",
                            "value": false
                        },
                        "isRequired": false,
                        "placeholder": {
                            "key": "placeholder",
                            "value": ""
                        }
                    }
                },
                "customerName": {
                    "dataType": "string",
                    "layoutConfig": {
                        "isRequired": {
                            "kuid": "bc32c458dc384fe2b132fa824d13a21b",
                            "wType": "Label"
                        },
                        "kuid": "d5216c66104d4cb8bf3de266d8ab43e6",
                        "name": {
                            "kuid": "gedf16d605b14f43ba537aa9a1cb1699",
                            "wType": "Label"
                        },
                        "nameFlex": {
                            "kuid": "i3bc44a247b0468eb11197482ee962b7",
                            "wType": "FlexContainer"
                        },
                        "value": {
                            "kuid": "df53c3086e124950a084fe7c1244e8e4",
                            "wType": "TextField"
                        },
                        "wType": "FlexContainer"
                    },
                    "properties": {
                        "displayName": {
                            "key": "text",
                            "value": "customerName"
                        },
                        "generate": true,
                        "index": 2,
                        "isReadOnly": {
                            "key": "isReadOnly",
                            "value": false
                        },
                        "isRequired": false,
                        "placeholder": {
                            "key": "placeholder",
                            "value": ""
                        }
                    }
                },
                "customerstatus": {
                    "dataType": "number",
                    "layoutConfig": {
                        "isRequired": {
                            "kuid": "cd6b4dd60061405bb7f0bde01c0ce613",
                            "wType": "Label"
                        },
                        "kuid": "d814cb8bab8a4f5c8c077ed6b36d5d78",
                        "name": {
                            "kuid": "ac34869fe323445fa2374c44dd35245c",
                            "wType": "Label"
                        },
                        "nameFlex": {
                            "kuid": "f61d388c99ba4b8795a5069500ba644f",
                            "wType": "FlexContainer"
                        },
                        "value": {
                            "kuid": "b91fa4d90050496184ec5df4bc2ec79a",
                            "wType": "TextField"
                        },
                        "wType": "FlexContainer"
                    },
                    "properties": {
                        "displayName": {
                            "key": "text",
                            "value": "customerstatus"
                        },
                        "generate": true,
                        "index": 7,
                        "isReadOnly": {
                            "key": "isReadOnly",
                            "value": false
                        },
                        "isRequired": false,
                        "placeholder": {
                            "key": "placeholder",
                            "value": ""
                        }
                    }
                },
                "displayName": {
                    "dataType": "string",
                    "layoutConfig": {
                        "isRequired": {
                            "kuid": "ee9c2606ff264246b4a453789416e957",
                            "wType": "Label"
                        },
                        "kuid": "fc6cb2fecd02474d97b7aeb1125c429f",
                        "name": {
                            "kuid": "c502e67424ca48d09d580d1678aeee9f",
                            "wType": "Label"
                        },
                        "nameFlex": {
                            "kuid": "j905b9b43fac4803bffaaa4b335c7b2c",
                            "wType": "FlexContainer"
                        },
                        "value": {
                            "kuid": "c18d6800e22b45dbaefcb98570a4c435",
                            "wType": "TextField"
                        },
                        "wType": "FlexContainer"
                    },
                    "properties": {
                        "displayName": {
                            "key": "text",
                            "value": "displayName"
                        },
                        "generate": true,
                        "index": 3,
                        "isReadOnly": {
                            "key": "isReadOnly",
                            "value": false
                        },
                        "isRequired": false,
                        "placeholder": {
                            "key": "placeholder",
                            "value": ""
                        }
                    }
                },
                "gender": {
                    "dataType": "string",
                    "layoutConfig": {
                        "isRequired": {
                            "kuid": "id5a847c31f04285bcffeb745f2f682b",
                            "wType": "Label"
                        },
                        "kuid": "d76de5ddd1ef498ba98169107a5dc3ba",
                        "name": {
                            "kuid": "c3cd24dd4e00445eb66051bfb598776c",
                            "wType": "Label"
                        },
                        "nameFlex": {
                            "kuid": "d9080d8f52d742e6822adcac1b982175",
                            "wType": "FlexContainer"
                        },
                        "value": {
                            "kuid": "e7a6fb8cd7354ae6a1c4acb123d6e267",
                            "wType": "TextField"
                        },
                        "wType": "FlexContainer"
                    },
                    "properties": {
                        "displayName": {
                            "key": "text",
                            "value": "gender"
                        },
                        "generate": true,
                        "index": 6,
                        "isReadOnly": {
                            "key": "isReadOnly",
                            "value": false
                        },
                        "isRequired": false,
                        "placeholder": {
                            "key": "placeholder",
                            "value": ""
                        }
                    }
                },
                "language": {
                    "dataType": "number",
                    "layoutConfig": {
                        "isRequired": {
                            "kuid": "add2bf0ab8694c2a90cb597d87e4a920",
                            "wType": "Label"
                        },
                        "kuid": "e68f07f5493f4b40997e5b72fa9c47db",
                        "name": {
                            "kuid": "b21324fe9e09431093471d253e4a2aa2",
                            "wType": "Label"
                        },
                        "nameFlex": {
                            "kuid": "d9369a97b0504202b23b9d016d2f975d",
                            "wType": "FlexContainer"
                        },
                        "value": {
                            "kuid": "f0f93e6a7f7b41b7a0e6b57e4b3b8a33",
                            "wType": "TextField"
                        },
                        "wType": "FlexContainer"
                    },
                    "properties": {
                        "displayName": {
                            "key": "text",
                            "value": "language"
                        },
                        "generate": true,
                        "index": 4,
                        "isReadOnly": {
                            "key": "isReadOnly",
                            "value": false
                        },
                        "isRequired": false,
                        "placeholder": {
                            "key": "placeholder",
                            "value": ""
                        }
                    }
                },
                "sectorId": {
                    "dataType": "number",
                    "layoutConfig": {
                        "isRequired": {
                            "kuid": "e633d8e5fc094b11866f94e62f3ef4ec",
                            "wType": "Label"
                        },
                        "kuid": "gdc4eadaf44a499b83f7d53f91896e70",
                        "name": {
                            "kuid": "fdcb63cfe725473692f99a4368815c11",
                            "wType": "Label"
                        },
                        "nameFlex": {
                            "kuid": "e1482b3d1cdf4ed0b9fbeca87003e7e4",
                            "wType": "FlexContainer"
                        },
                        "value": {
                            "kuid": "f460c571e2e449e1bb5102d7b843c6eb",
                            "wType": "TextField"
                        },
                        "wType": "FlexContainer"
                    },
                    "properties": {
                        "displayName": {
                            "key": "text",
                            "value": "sectorId"
                        },
                        "generate": true,
                        "index": 5,
                        "isReadOnly": {
                            "key": "isReadOnly",
                            "value": false
                        },
                        "isRequired": false,
                        "placeholder": {
                            "key": "placeholder",
                            "value": ""
                        }
                    }
                }
            }
        }
    },
    "wType": "FlexScrollContainer",
    "widgetalignment": 1,
    "zindex": 1
}