{
    "@class": "com.kony.gen.viz.model.component.KVizImage2",
    "DNDConfig": null,
    "__parentReadjusting__": false,
    "_base64_": null,
    "_height_": {
        "type": "string",
        "value": "65dp"
    },
    "_left_": {
        "type": "string",
        "value": "0"
    },
    "_margin_": [
        0,
        0,
        0,
        0
    ],
    "_padding_": [
        0,
        0,
        0,
        0
    ],
    "_skin_": "s5be8cd8339848e6bb2f9297e6c1aaf0",
    "_src_": "header_logo.png",
    "_top_": {
        "type": "string",
        "value": "0"
    },
    "_width_": {
        "type": "string",
        "value": "75dp"
    },
    "canUpdateUI": true,
    "containerweight": 100,
    "id": "Image0eb036225091c48",
    "ide_onTouchEnd": "AS_Image_f0968c3b38ab4a5a97b24c9400a67ffe",
    "imagescalemode": 1,
    "info": null,
    "iscustomlayout": false,
    "isvisible": true,
    "kuid": "a4d50599d02b48bd83adfe619d59fc36",
    "name": "kony.ui.Image2",
    "parent": "FlexContainer0b3ce193f1e4241",
    "pf": "authorizeCustomer",
    "retaincontentalignment": false,
    "retainflexpositionproperties": false,
    "srcType": 1,
    "wType": "Image",
    "widgetalignment": 5
}