{
  "subType" : "customapp",
  "description" : "This app is created from Studio App CustomApp.\r\n",
  "version" : "1.0",
  "intSvcs" : [ {
    "name" : "AccountCreationJSON",
    "version" : "1.0",
    "etag" : "069cc22f-6a80-4efc-a541-c00af0ddc28f"
  }, {
    "name" : "CustomerCreationJSON",
    "version" : "1.0",
    "etag" : "7fa6193a-ad3a-4b97-89f0-c40f8f7cf3a7"
  } ]
}