{
    "@class": "com.kony.gen.viz.model.component.KVizButton",
    "DNDConfig": null,
    "__parentReadjusting__": false,
    "_height_": {
        "type": "string",
        "value": "50dp"
    },
    "_left_": {
        "type": "string",
        "value": "55dp"
    },
    "_margin_": [
        6,
        6,
        6,
        6
    ],
    "_padding_": [
        0,
        0,
        0,
        0
    ],
    "_skin_": "sae4d5e0b11749409bb980627d9f2bb4",
    "_text_": "search",
    "_top_": {
        "type": "string",
        "value": "350dp"
    },
    "_width_": {
        "type": "string",
        "value": "300dp"
    },
    "canUpdateUI": true,
    "containerweight": 100,
    "contentalignment": 5,
    "displaytext": true,
    "focusskin": "sd850addba3d4f6e9393b6254d832e7c",
    "id": "Button0eba1a4ae3dca42",
    "ide_onClick": "AS_Button_be29eaabdc6547eca6029508b5abf7f8",
    "info": null,
    "iscustomlayout": false,
    "isvisible": true,
    "kuid": "bd0b00d7a4bd4af9a5d67c1f770c472b",
    "name": "kony.ui.Button",
    "parent": "searchCustomer",
    "pf": "searchCustomer",
    "retaincontentalignment": false,
    "retainflexpositionproperties": false,
    "wType": "Button"
}