{
    "AS_Button_jde5d4777b9e4992ac71d3c90d39ec73": {
        "id": "AS_Button_jde5d4777b9e4992ac71d3c90d39ec73",
        "type": "ACTION_SEQUENCE",
        "params": [{
            "datatype": "collection",
            "name": "eventobject"
        }],
        "contextObj": {
            "name": "customerForm",
            "type": "forms",
            "platform": null,
            "KUID": "e3e83d2c688945c4b04e1178f99384bb"
        },
        "language": "js",
        "actions": [{
            "id": "ADD_SNIPPET_h5934ded254b47998aa57c53e5c67ad9",
            "type": "ADD_SNIPPET",
            "codeSnippet": "\nalert(\"Congratulations!! Customer ID is  :\"+JSON.stringify(CustomerCreation.header.id));",
            "parentId": "_IF_CONDITION_eaa7dc80923d49fcbb15d5e1e40c3fbe"
        }, {
            "id": "NAVIGATE_TO_FORM__f889807c4d5240618521fb003cf4e00d",
            "type": "NAVIGATE_TO_FORM",
            "formId": "authorizeCustomer",
            "formKUID": "f537272f3dfe43e1ab1743f5bd0d67f4",
            "mappings": {},
            "mappingsOrder": [],
            "parentId": "_IF_CONDITION_eaa7dc80923d49fcbb15d5e1e40c3fbe",
            "enableMappingEditor": true,
            "package": "",
            "isCustomInput": false
        }, {
            "id": "LOADING_INDICATOR_d524119de3d84add817acc700f1e6c98",
            "selectedOption": "show",
            "disabled": null,
            "type": "LOADING_INDICATOR",
            "skin": "none",
            "position": "constants.LOADING_SCREEN_POSITION_FULL_SCREEN",
            "isBlocked": "true",
            "showProgressIndicator": "true"
        }, {
            "id": "INVOKE_ASYNC_SERVICE_b51e101fdd704cfa8d2959aedfecf975",
            "type": "INVOKE_ASYNC_SERVICE",
            "inputparams": null,
            "httpheaders": null,
            "httpconfigs": null,
            "isasynchronous": true,
            "mappings": {
                "ME_Mapping_bf931e36f0b64beca02c379029bb180a": {
                    "channel": "mobile",
                    "id": "ME_Mapping_bf931e36f0b64beca02c379029bb180a",
                    "type": "MAPPING",
                    "callbackType": null,
                    "rectified": true,
                    "source": {
                        "type": "Forms",
                        "propertyName": "text",
                        "widgetId": "tbxNationality",
                        "widgetPath": "this.view.tbxNationality",
                        "widgetType": "TextField",
                        "dataType": "string",
                        "itemId": "customerForm",
                        "widgetKUID": "eca99c0115a94dbeb811dbda0a0357c9",
                        "itemKUID": "e3e83d2c688945c4b04e1178f99384bb",
                        "forkedPlatform": "all"
                    },
                    "target": {
                        "type": "Services",
                        "propertyName": "Nationality",
                        "dataType": "string",
                        "forkedPlatform": "all",
                        "serviceconfig": {
                            "servicename": "CustomerCreationJSON",
                            "type": "integration",
                            "operationname": "CustomerCreation",
                            "serviceid": "7f3f3378-8c4d-44eb-ae69-0829470b6608",
                            "operationid": "64932"
                        }
                    }
                },
                "ME_Mapping_h07c4efe558843e2840580fd83abdea6": {
                    "channel": "mobile",
                    "id": "ME_Mapping_h07c4efe558843e2840580fd83abdea6",
                    "type": "MAPPING",
                    "callbackType": null,
                    "rectified": true,
                    "source": {
                        "type": "Forms",
                        "propertyName": "text",
                        "widgetId": "tbxcustomerMnemonic",
                        "widgetPath": "this.view.tbxcustomerMnemonic",
                        "widgetType": "TextField",
                        "dataType": "string",
                        "itemId": "customerForm",
                        "widgetKUID": "h57611722d1a46fdb38da4dbd74798ff",
                        "itemKUID": "e3e83d2c688945c4b04e1178f99384bb",
                        "forkedPlatform": "all"
                    },
                    "target": {
                        "type": "Services",
                        "propertyName": "customerMnemonic",
                        "dataType": "string",
                        "forkedPlatform": "all",
                        "serviceconfig": {
                            "servicename": "CustomerCreationJSON",
                            "type": "integration",
                            "operationname": "CustomerCreation",
                            "serviceid": "7f3f3378-8c4d-44eb-ae69-0829470b6608",
                            "operationid": "64932"
                        }
                    }
                },
                "ME_Mapping_ae538518b23e469995b3724fbdd5f212": {
                    "channel": "mobile",
                    "id": "ME_Mapping_ae538518b23e469995b3724fbdd5f212",
                    "type": "MAPPING",
                    "callbackType": null,
                    "rectified": true,
                    "source": {
                        "type": "Forms",
                        "propertyName": "text",
                        "widgetId": "tbxcustomerName",
                        "widgetPath": "this.view.tbxcustomerName",
                        "widgetType": "TextField",
                        "dataType": "string",
                        "itemId": "customerForm",
                        "widgetKUID": "df53c3086e124950a084fe7c1244e8e4",
                        "itemKUID": "e3e83d2c688945c4b04e1178f99384bb",
                        "forkedPlatform": "all"
                    },
                    "target": {
                        "type": "Services",
                        "propertyName": "customerName",
                        "dataType": "string",
                        "forkedPlatform": "all",
                        "serviceconfig": {
                            "servicename": "CustomerCreationJSON",
                            "type": "integration",
                            "operationname": "CustomerCreation",
                            "serviceid": "7f3f3378-8c4d-44eb-ae69-0829470b6608",
                            "operationid": "64932"
                        }
                    }
                },
                "ME_Mapping_a3e9525f13054ae6875cd02ac857b008": {
                    "channel": "mobile",
                    "id": "ME_Mapping_a3e9525f13054ae6875cd02ac857b008",
                    "type": "MAPPING",
                    "callbackType": null,
                    "rectified": true,
                    "source": {
                        "type": "Forms",
                        "propertyName": "text",
                        "widgetId": "tbxdisplayName",
                        "widgetPath": "this.view.tbxdisplayName",
                        "widgetType": "TextField",
                        "dataType": "string",
                        "itemId": "customerForm",
                        "widgetKUID": "c18d6800e22b45dbaefcb98570a4c435",
                        "itemKUID": "e3e83d2c688945c4b04e1178f99384bb",
                        "forkedPlatform": "all"
                    },
                    "target": {
                        "type": "Services",
                        "propertyName": "displayName",
                        "dataType": "string",
                        "forkedPlatform": "all",
                        "serviceconfig": {
                            "servicename": "CustomerCreationJSON",
                            "type": "integration",
                            "operationname": "CustomerCreation",
                            "serviceid": "7f3f3378-8c4d-44eb-ae69-0829470b6608",
                            "operationid": "64932"
                        }
                    }
                },
                "ME_Mapping_e456f3fef10b45dd9227fa6c951798e7": {
                    "channel": "mobile",
                    "id": "ME_Mapping_e456f3fef10b45dd9227fa6c951798e7",
                    "type": "MAPPING",
                    "callbackType": null,
                    "rectified": true,
                    "source": {
                        "type": "Forms",
                        "propertyName": "text",
                        "widgetId": "tbxlanguage",
                        "widgetPath": "this.view.tbxlanguage",
                        "widgetType": "TextField",
                        "dataType": "string",
                        "itemId": "customerForm",
                        "widgetKUID": "f0f93e6a7f7b41b7a0e6b57e4b3b8a33",
                        "itemKUID": "e3e83d2c688945c4b04e1178f99384bb",
                        "forkedPlatform": "all"
                    },
                    "target": {
                        "type": "Services",
                        "propertyName": "language",
                        "dataType": "number",
                        "forkedPlatform": "all",
                        "serviceconfig": {
                            "servicename": "CustomerCreationJSON",
                            "type": "integration",
                            "operationname": "CustomerCreation",
                            "serviceid": "7f3f3378-8c4d-44eb-ae69-0829470b6608",
                            "operationid": "64932"
                        }
                    }
                },
                "ME_Mapping_b52c6c12f27c4b91981f129343726a96": {
                    "channel": "mobile",
                    "id": "ME_Mapping_b52c6c12f27c4b91981f129343726a96",
                    "type": "MAPPING",
                    "callbackType": null,
                    "rectified": true,
                    "source": {
                        "type": "Forms",
                        "propertyName": "text",
                        "widgetId": "tbxsectorId",
                        "widgetPath": "this.view.tbxsectorId",
                        "widgetType": "TextField",
                        "dataType": "string",
                        "itemId": "customerForm",
                        "widgetKUID": "f460c571e2e449e1bb5102d7b843c6eb",
                        "itemKUID": "e3e83d2c688945c4b04e1178f99384bb",
                        "forkedPlatform": "all"
                    },
                    "target": {
                        "type": "Services",
                        "propertyName": "sectorId",
                        "dataType": "number",
                        "forkedPlatform": "all",
                        "serviceconfig": {
                            "servicename": "CustomerCreationJSON",
                            "type": "integration",
                            "operationname": "CustomerCreation",
                            "serviceid": "7f3f3378-8c4d-44eb-ae69-0829470b6608",
                            "operationid": "64932"
                        }
                    }
                },
                "ME_Mapping_e90f19b6fb7c413080cb853f11be0637": {
                    "channel": "mobile",
                    "id": "ME_Mapping_e90f19b6fb7c413080cb853f11be0637",
                    "type": "MAPPING",
                    "callbackType": null,
                    "rectified": true,
                    "source": {
                        "type": "Forms",
                        "propertyName": "text",
                        "widgetId": "tbxgender",
                        "widgetPath": "this.view.tbxgender",
                        "widgetType": "TextField",
                        "dataType": "string",
                        "itemId": "customerForm",
                        "widgetKUID": "e7a6fb8cd7354ae6a1c4acb123d6e267",
                        "itemKUID": "e3e83d2c688945c4b04e1178f99384bb",
                        "forkedPlatform": "all"
                    },
                    "target": {
                        "type": "Services",
                        "propertyName": "gender",
                        "dataType": "string",
                        "forkedPlatform": "all",
                        "serviceconfig": {
                            "servicename": "CustomerCreationJSON",
                            "type": "integration",
                            "operationname": "CustomerCreation",
                            "serviceid": "7f3f3378-8c4d-44eb-ae69-0829470b6608",
                            "operationid": "64932"
                        }
                    }
                },
                "ME_Mapping_be4a000639ee48b4b1bda563999c4e9e": {
                    "channel": "mobile",
                    "id": "ME_Mapping_be4a000639ee48b4b1bda563999c4e9e",
                    "type": "MAPPING",
                    "callbackType": null,
                    "rectified": true,
                    "source": {
                        "type": "Forms",
                        "propertyName": "text",
                        "widgetId": "tbxcustomerstatus",
                        "widgetPath": "this.view.tbxcustomerstatus",
                        "widgetType": "TextField",
                        "dataType": "string",
                        "itemId": "customerForm",
                        "widgetKUID": "b91fa4d90050496184ec5df4bc2ec79a",
                        "itemKUID": "e3e83d2c688945c4b04e1178f99384bb",
                        "forkedPlatform": "all"
                    },
                    "target": {
                        "type": "Services",
                        "propertyName": "customerstatus",
                        "dataType": "number",
                        "forkedPlatform": "all",
                        "serviceconfig": {
                            "servicename": "CustomerCreationJSON",
                            "type": "integration",
                            "operationname": "CustomerCreation",
                            "serviceid": "7f3f3378-8c4d-44eb-ae69-0829470b6608",
                            "operationid": "64932"
                        }
                    }
                }
            },
            "mappingsOrder": ["ME_Mapping_bf931e36f0b64beca02c379029bb180a", "ME_Mapping_h07c4efe558843e2840580fd83abdea6", "ME_Mapping_ae538518b23e469995b3724fbdd5f212", "ME_Mapping_a3e9525f13054ae6875cd02ac857b008", "ME_Mapping_e456f3fef10b45dd9227fa6c951798e7", "ME_Mapping_b52c6c12f27c4b91981f129343726a96", "ME_Mapping_e90f19b6fb7c413080cb853f11be0637", "ME_Mapping_be4a000639ee48b4b1bda563999c4e9e"],
            "serviceconfig": {
                "servicename": "CustomerCreationJSON",
                "type": "integration",
                "operationname": "CustomerCreation",
                "serviceid": "7f3f3378-8c4d-44eb-ae69-0829470b6608",
                "operationid": "64932"
            },
            "enableMappingEditor": true
        }, {
            "id": "LOADING_INDICATOR_ad3505f6d1554a2f8e400f187c8d397f",
            "selectedOption": "dismiss",
            "parentId": "INVOKE_ASYNC_SERVICE_b51e101fdd704cfa8d2959aedfecf975",
            "disabled": null,
            "type": "LOADING_INDICATOR",
            "callbackType": "Callback",
            "skin": "none",
            "position": "constants.LOADING_SCREEN_POSITION_FULL_SCREEN",
            "isBlocked": "true",
            "showProgressIndicator": "true"
        }, {
            "id": "_IF_CONDITION_eaa7dc80923d49fcbb15d5e1e40c3fbe",
            "type": "IF_CONDITION",
            "conditions": [{
                "leftValue": "CustomerCreation.opstatus",
                "rightValue": "0",
                "leftValueType": "value",
                "rightValueType": "value",
                "operator": "==="
            }],
            "parentId": "INVOKE_ASYNC_SERVICE_b51e101fdd704cfa8d2959aedfecf975",
            "callbackType": "Callback",
            "criteria": "all"
        }, {
            "id": "_ELSE_CONDITION_ieab5e6e01c145f5bbaf1e6d805e4977",
            "type": "ELSE_CONDITION",
            "conditions": [{
                "leftValueType": "widgetprop",
                "leftValue": "",
                "operator": "===",
                "rightValueType": "widgetprop",
                "rightValue": ""
            }],
            "parentId": "INVOKE_ASYNC_SERVICE_b51e101fdd704cfa8d2959aedfecf975",
            "callbackType": "Callback",
            "criteria": "all"
        }, {
            "id": "SHOW_ALERT_dc5b26e07958447a845edd23be375762",
            "type": "SHOW_ALERT",
            "alertType": "constants.ALERT_TYPE_INFO",
            "alertTitle": null,
            "yesLabel": null,
            "noLabel": null,
            "alertIcon": null,
            "alertMessage": "Data fetch failed! Please try again later.",
            "messageType": "constant",
            "alertHandler": null,
            "parentId": "_ELSE_CONDITION_ieab5e6e01c145f5bbaf1e6d805e4977",
            "alertTitlei18n": null,
            "yesLabeli18n": null,
            "noLabeli18n": null,
            "alertMessagei18n": null,
            "iconPosition": "constants.ALERT_ICON_POSITION_LEFT",
            "disabled": null
        }]
    }
}