{
    "AS_Button_be29eaabdc6547eca6029508b5abf7f8": {
        "id": "AS_Button_be29eaabdc6547eca6029508b5abf7f8",
        "type": "ACTION_SEQUENCE",
        "params": [{
            "datatype": "collection",
            "name": "eventobject"
        }],
        "contextObj": {
            "name": "searchCustomer",
            "type": "forms",
            "platform": null,
            "KUID": "i8b951aa73b34b799aea6c2c81c4308c"
        },
        "language": "js",
        "actions": [{
            "id": "ADD_LOCAL_VARIABLE_a71617794a44483dbd62e9ab6ece903d",
            "type": "ADD_LOCAL_VARIABLE",
            "name": "myGlobal",
            "isGlobal": true,
            "valuetype": "simple",
            "datatype": "string",
            "value": "\"\""
        }, {
            "id": "ADD_SNIPPET_bff08c44a56e4acba997afd1180dbc02",
            "type": "ADD_SNIPPET",
            "codeSnippet": "myGlobal = this.view.TextField0cf6161c9ec2140.text;"
        }, {
            "id": "NAVIGATE_TO_FORM__bb02c6e41a1a4a438e251e65513654ac",
            "type": "NAVIGATE_TO_FORM",
            "formId": "customerDetails",
            "formKUID": "ccaa6ee081174fa4b582db8af3368eb8",
            "mappings": {},
            "mappingsOrder": [],
            "parentId": "",
            "enableMappingEditor": true,
            "package": "",
            "isCustomInput": false
        }]
    }
}