{
    "@class": "com.kony.gen.viz.model.component.KVizLabel",
    "DNDConfig": null,
    "__parentReadjusting__": false,
    "_bottom_": {
        "type": "string",
        "value": "5dp"
    },
    "_height_": {
        "type": "string",
        "value": "preferred"
    },
    "_left_": {
        "type": "string",
        "value": "15dp"
    },
    "_margin_": [
        1,
        1,
        1,
        1
    ],
    "_padding_": [
        0,
        0,
        0,
        0
    ],
    "_skin_": "s238dd8dffe64b80b54f6827ef99f2d4",
    "_text_": "INDUSTRY",
    "_top_": {
        "type": "string",
        "value": "5dp"
    },
    "_width_": {
        "type": "string",
        "value": "80%"
    },
    "_wrapping_": 2,
    "actionsInfo": {
        "dataCollectionId": "body",
        "dataPropertyName": "INDUSTRY",
        "widgetPropertyName": "text"
    },
    "android": {
        "textStyle": {
            "letterSpacing": 0,
            "strikeThrough": false
        }
    },
    "canUpdateUI": true,
    "containerId": true,
    "containerweight": 100,
    "contentalignment": 4,
    "id": "lblINDUSTRY",
    "info": null,
    "ipad": {
        "psp": {
            "wrapping": 2
        }
    },
    "iphone": {
        "psp": {
            "wrapping": 2
        }
    },
    "iscustomlayout": false,
    "isvisible": true,
    "kuid": "g7587587b1db47c6915e26293e2e26dd",
    "maxnumberoflines": 2,
    "name": "kony.ui.Label",
    "parent": "FBox0gdcbb203c13b4b",
    "pf": "FBox0gdcbb203c13b4b",
    "retaincontentalignment": false,
    "retainflexpositionproperties": false,
    "texttruncateposition": 3,
    "tooltip": "",
    "wType": "Label"
}