{
    "@class": "com.kony.gen.viz.model.component.KVizImage2",
    "DNDConfig": null,
    "__parentReadjusting__": false,
    "_base64_": null,
    "_height_": {
        "type": "string",
        "value": "50%"
    },
    "_left_": {
        "type": "string",
        "value": "3%"
    },
    "_margin_": [
        0,
        0,
        0,
        0
    ],
    "_padding_": [
        0,
        0,
        0,
        0
    ],
    "_skin_": "s5be8cd8339848e6bb2f9297e6c1aaf0",
    "_src_": "header_logo.png",
    "_width_": {
        "type": "string",
        "value": "10%"
    },
    "actionsInfo": {
        "skipMapping": true
    },
    "canUpdateUI": true,
    "centery": {
        "type": "string",
        "value": "50%"
    },
    "containerweight": 100,
    "id": "imgHeaderLogo",
    "ide_onTouchEnd": "AS_Image_i626ec9ec6254a2cb5e64abe31376db9",
    "imagescalemode": 1,
    "info": null,
    "iscustomlayout": false,
    "isvisible": true,
    "kuid": "idcf2778b97f42488a9a7a685b65b1ae",
    "name": "kony.ui.Image2",
    "parent": "flexHeader",
    "pf": "customerDetails",
    "retaincontentalignment": false,
    "retainflexpositionproperties": false,
    "srcType": 1,
    "wType": "Image",
    "widgetalignment": 5
}